<svg xmlns="http://www.w3.org/2000/svg" width="74.042" height="74.04" viewBox="0 0 74.042 74.04">
  <g id="life-support" transform="translate(-2 -2.002)">
    <path id="Path_1047" data-name="Path 1047" d="M28,11.936A4.936,4.936,0,1,0,32.936,7,4.936,4.936,0,0,0,28,11.936Zm7.4,0a2.468,2.468,0,1,1-2.468-2.468A2.468,2.468,0,0,1,35.4,11.936Z" transform="translate(6.085 1.17)" fill="#fff"/>
    <path id="Path_1048" data-name="Path 1048" d="M22,19.7a3.7,3.7,0,0,0,3.7,3.7H28.17v12.34A3.7,3.7,0,0,0,34.34,38.5a3.7,3.7,0,0,0,6.17-2.752V23.4h2.468a3.7,3.7,0,1,0,0-7.4H25.7A3.7,3.7,0,0,0,22,19.7Zm22.213,0a1.234,1.234,0,0,1-1.234,1.234h-3.7a1.234,1.234,0,0,0-1.234,1.234V35.745a1.234,1.234,0,0,1-2.468,0V27.106a1.234,1.234,0,0,0-2.468,0v8.638a1.234,1.234,0,1,1-2.468,0V22.17A1.234,1.234,0,0,0,29.4,20.936H25.7a1.234,1.234,0,1,1,0-2.468H42.979A1.234,1.234,0,0,1,44.213,19.7Z" transform="translate(4.681 3.276)" fill="#fff"/>
    <path id="Path_1049" data-name="Path 1049" d="M74.808,29.148h-2.8l-4.6-8.021A1.234,1.234,0,0,0,65.343,21l-2.814,3.7-2.653-2.851c.074-.889.123-1.789.123-2.69V16.808a1.234,1.234,0,0,0-.531-1.012L39.725,2.222a1.234,1.234,0,0,0-1.407,0L18.573,15.8a1.234,1.234,0,0,0-.531,1.012v2.357c0,.963.062,1.925.148,2.863l-2.468,2.727-2.814-3.7a1.234,1.234,0,0,0-2.061.123L6.22,29.148H3.234a1.234,1.234,0,0,0,0,2.468h3.7A1.234,1.234,0,0,0,8.01,31l4-7.009,2.579,3.431a1.3,1.3,0,0,0,1.95.1l2.172-2.345A31.332,31.332,0,0,0,21.6,33.529l-2.16,2.332-2.814-3.7a1.234,1.234,0,0,0-2.061.123l-4.64,7.972H6.936a1.234,1.234,0,1,0,0,2.468h3.7a1.234,1.234,0,0,0,1.074-.617l4-7.009,2.579,3.431a1.3,1.3,0,0,0,1.95.1l2.629-2.851A31.665,31.665,0,0,0,38.589,48.819a1.3,1.3,0,0,0,.864,0A31.7,31.7,0,0,0,55.311,35.664l2.74,2.962a1.227,1.227,0,0,0,1.888-.1l2.53-3.431,4,7.009a1.234,1.234,0,0,0,1.074.617h3.566a1.234,1.234,0,0,0,0-2.468H68.3l-4.6-8.021a1.234,1.234,0,0,0-2.061-.123l-2.814,3.7-2.271-2.468a32.319,32.319,0,0,0,2.851-8.4l2.32,2.468a1.227,1.227,0,0,0,1.888-.1l2.554-3.32,4,7.009a1.234,1.234,0,0,0,1.074.617h3.566a1.234,1.234,0,0,0,0-2.468ZM57.532,19.165A29.345,29.345,0,0,1,39.021,46.314,29.345,29.345,0,0,1,20.511,19.165v-1.7L39.021,4.727,57.532,17.462Z" transform="translate(0)" fill="#fff"/>
    <path id="Path_1050" data-name="Path 1050" d="M32.767,52.34h8.786a4.319,4.319,0,1,0,0-8.638H26.918a33.319,33.319,0,0,0-5.146.42A3.122,3.122,0,0,0,18.822,41.3L10.27,40h-.185A3.134,3.134,0,0,0,7,43.184V62.669a3.159,3.159,0,0,0,2.986,3.246l8.552,1.234h.185a3.134,3.134,0,0,0,3.085-3.184v-.839c.975.222,1.345.3,1.506.309l15.771,1.592a25.6,25.6,0,0,0,2.912.16,28.383,28.383,0,0,0,13.908-3.7l10.847-6.1a3.924,3.924,0,1,0-3.9-6.75l-7.4,4.146a26.026,26.026,0,0,1-16.98,2.925l-5.319-.9h-.234a1.333,1.333,0,0,1-1.37-1.123,1.234,1.234,0,0,1,.37-1,1.111,1.111,0,0,1,.851-.346ZM19.341,63.965a.691.691,0,0,1-.555.716L10.27,63.447h-.185a.666.666,0,0,1-.617-.716V43.184a.691.691,0,0,1,.555-.716L18.539,43.7h.185a.679.679,0,0,1,.617.716Zm13.488-6.688,5.232.876A28.568,28.568,0,0,0,56.7,54.883l7.4-4.146A1.456,1.456,0,1,1,65.531,53.2l-10.86,6.17a25.754,25.754,0,0,1-15.364,3.2L23.561,60.979c-.173,0-.839-.173-1.752-.383V46.614a31.407,31.407,0,0,1,5.109-.444H41.553a1.74,1.74,0,0,1,1.234.543,1.851,1.851,0,0,1-1.234,3.159H32.767A3.689,3.689,0,0,0,29.1,53.883a3.813,3.813,0,0,0,3.727,3.394Z" transform="translate(1.17 8.893)" fill="#fff"/>
  </g>
</svg>
