<svg xmlns="http://www.w3.org/2000/svg" width="31.219" height="31.219" viewBox="0 0 31.219 31.219">
  <path id="arrow_back_FILL0_wght100_GRAD-25_opsz40" d="M15.581,31.219,0,15.638,15.581,0l.952.952L2.466,14.965H31.219v1.289H2.466L16.534,30.323Z" fill="#006b8e"/>
</svg>
