<svg xmlns="http://www.w3.org/2000/svg" width="31.219" height="31.219" viewBox="0 0 31.219 31.219">
  <path id="arrow_back_FILL0_wght100_GRAD-25_opsz40" d="M24,39.594,8.417,24.013,24,8.375l.952.952L10.883,23.34H39.636v1.289H10.883L24.951,38.7Z" transform="translate(39.636 39.594) rotate(-180)" fill="#ffbe00"/>
</svg>
