<svg xmlns="http://www.w3.org/2000/svg" width="222.123" height="217.938" viewBox="0 0 222.123 217.938">
  <g id="Group_2119" data-name="Group 2119" transform="translate(-910.876 -1796.62)">
    <g id="Group_1370" data-name="Group 1370" transform="translate(1382.457 1627.287)">
      <g id="Group_1356" data-name="Group 1356" transform="translate(-451.583 285.909)">
        <g id="Group_1350" data-name="Group 1350" transform="translate(6.141)">
          <g id="Group_1345" data-name="Group 1345" transform="translate(0 0.003)">
            <path id="Rectangle_179" data-name="Rectangle 179" d="M9.168,0H46.516a9.168,9.168,0,0,1,9.168,9.168V48.511a0,0,0,0,1,0,0H0a0,0,0,0,1,0,0V9.168A9.168,9.168,0,0,1,9.168,0Z" fill="#4e92ff"/>
            <path id="Path_403" data-name="Path 403" d="M-376.814,318.29v42.364h-35.492c23.23-10.552,31.255-32.656,34.03-46.346A6.158,6.158,0,0,1-376.814,318.29Z" transform="translate(432.497 -312.146)" fill="#3683ff"/>
            <g id="Group_1344" data-name="Group 1344" transform="translate(3.958 6.489)">
              <path id="Path_404" data-name="Path 404" d="M-391.1,325.455h-43.074a2.346,2.346,0,0,1-2.346-2.346h0a2.346,2.346,0,0,1,2.346-2.346H-391.1a2.346,2.346,0,0,1,2.346,2.346h0A2.346,2.346,0,0,1-391.1,325.455Z" transform="translate(436.52 -320.762)" fill="#003cb4"/>
              <path id="Path_405" data-name="Path 405" d="M-391.1,348.455h-43.074a2.346,2.346,0,0,1-2.346-2.346h0a2.346,2.346,0,0,1,2.346-2.346H-391.1a2.346,2.346,0,0,1,2.346,2.346h0A2.346,2.346,0,0,1-391.1,348.455Z" transform="translate(436.52 -328.342)" fill="#003cb4"/>
              <path id="Path_406" data-name="Path 406" d="M-391.1,371.455h-43.074a2.346,2.346,0,0,1-2.346-2.346h0a2.346,2.346,0,0,1,2.346-2.346H-391.1a2.346,2.346,0,0,1,2.346,2.346h0A2.346,2.346,0,0,1-391.1,371.455Z" transform="translate(436.52 -335.923)" fill="#003cb4"/>
            </g>
          </g>
          <g id="Group_1347" data-name="Group 1347" transform="translate(67.08 0.003)">
            <path id="Rectangle_180" data-name="Rectangle 180" d="M9.168,0H46.516a9.168,9.168,0,0,1,9.168,9.168V48.511a0,0,0,0,1,0,0H0a0,0,0,0,1,0,0V9.168A9.168,9.168,0,0,1,9.168,0Z" fill="#4e92ff"/>
            <path id="Path_407" data-name="Path 407" d="M-276.756,318.29v42.364h-35.492c23.23-10.552,31.255-32.656,34.03-46.346A6.158,6.158,0,0,1-276.756,318.29Z" transform="translate(332.44 -312.146)" fill="#3683ff"/>
            <g id="Group_1346" data-name="Group 1346" transform="translate(3.958 6.489)">
              <path id="Path_408" data-name="Path 408" d="M-291.041,325.455h-43.074a2.346,2.346,0,0,1-2.346-2.346h0a2.346,2.346,0,0,1,2.346-2.346h43.074a2.346,2.346,0,0,1,2.346,2.346h0A2.346,2.346,0,0,1-291.041,325.455Z" transform="translate(336.462 -320.762)" fill="#003cb4"/>
              <path id="Path_409" data-name="Path 409" d="M-291.041,348.455h-43.074a2.346,2.346,0,0,1-2.346-2.346h0a2.346,2.346,0,0,1,2.346-2.346h43.074a2.346,2.346,0,0,1,2.346,2.346h0A2.346,2.346,0,0,1-291.041,348.455Z" transform="translate(336.462 -328.342)" fill="#003cb4"/>
              <path id="Path_410" data-name="Path 410" d="M-291.041,371.455h-43.074a2.346,2.346,0,0,1-2.346-2.346h0a2.346,2.346,0,0,1,2.346-2.346h43.074a2.346,2.346,0,0,1,2.346,2.346h0A2.346,2.346,0,0,1-291.041,371.455Z" transform="translate(336.462 -335.923)" fill="#003cb4"/>
            </g>
          </g>
          <g id="Group_1349" data-name="Group 1349" transform="translate(134.158)">
            <path id="Path_411" data-name="Path 411" d="M-186.628,317.226V359.59h-55.685V317.226a6.152,6.152,0,0,1,6.148-6.148h43.39a6.138,6.138,0,0,1,4.686,2.165A6.158,6.158,0,0,1-186.628,317.226Z" transform="translate(242.313 -311.078)" fill="#4e92ff"/>
            <path id="Path_412" data-name="Path 412" d="M-176.7,318.29v42.364h-35.492c23.23-10.552,31.255-32.656,34.03-46.346A6.158,6.158,0,0,1-176.7,318.29Z" transform="translate(232.386 -312.143)" fill="#3683ff"/>
            <g id="Group_1348" data-name="Group 1348" transform="translate(3.961 6.492)">
              <path id="Path_413" data-name="Path 413" d="M-190.984,325.455h-43.074a2.346,2.346,0,0,1-2.346-2.346h0a2.346,2.346,0,0,1,2.346-2.346h43.074a2.346,2.346,0,0,1,2.346,2.346h0A2.346,2.346,0,0,1-190.984,325.455Z" transform="translate(236.405 -320.762)" fill="#003cb4"/>
              <path id="Path_414" data-name="Path 414" d="M-190.984,348.455h-43.074a2.346,2.346,0,0,1-2.346-2.346h0a2.346,2.346,0,0,1,2.346-2.346h43.074a2.346,2.346,0,0,1,2.346,2.346h0A2.346,2.346,0,0,1-190.984,348.455Z" transform="translate(236.405 -328.342)" fill="#003cb4"/>
              <path id="Path_415" data-name="Path 415" d="M-190.984,371.455h-43.074a2.346,2.346,0,0,1-2.346-2.346h0a2.346,2.346,0,0,1,2.346-2.346h43.074a2.346,2.346,0,0,1,2.346,2.346h0A2.346,2.346,0,0,1-190.984,371.455Z" transform="translate(236.405 -335.923)" fill="#003cb4"/>
            </g>
          </g>
        </g>
        <g id="Group_1353" data-name="Group 1353" transform="translate(4.633 54.27)">
          <g id="Group_1351" data-name="Group 1351">
            <path id="Path_416" data-name="Path 416" d="M-443,427.157a1.68,1.68,0,0,1-.648-.131,1.677,1.677,0,0,1-.9-2.194l8.2-19.539-4.853-10.908a1.676,1.676,0,0,1,.85-2.213,1.677,1.677,0,0,1,2.212.85l5.148,11.569a1.677,1.677,0,0,1,.014,1.33l-8.484,20.208A1.677,1.677,0,0,1-443,427.157Z" transform="translate(444.672 -392.027)" fill="#003cb4"/>
          </g>
          <g id="Group_1352" data-name="Group 1352" transform="translate(181.023)">
            <path id="Path_417" data-name="Path 417" d="M-164.5,427.157a1.677,1.677,0,0,1-1.546-1.028l-8.484-20.208a1.677,1.677,0,0,1,.014-1.33l5.148-11.569a1.677,1.677,0,0,1,2.212-.85,1.676,1.676,0,0,1,.85,2.213l-4.853,10.908,8.2,19.539a1.676,1.676,0,0,1-.9,2.194A1.68,1.68,0,0,1-164.5,427.157Z" transform="translate(174.658 -392.027)" fill="#003cb4"/>
          </g>
        </g>
        <g id="Group_1354" data-name="Group 1354" transform="translate(13.117 65.839)">
          <path id="Path_418" data-name="Path 418" d="M-257.8,412.636H-430.341a1.676,1.676,0,0,1-1.676-1.676,1.676,1.676,0,0,1,1.676-1.676H-257.8a1.676,1.676,0,0,1,1.676,1.676A1.676,1.676,0,0,1-257.8,412.636Z" transform="translate(432.017 -409.284)" fill="#003cb4"/>
        </g>
        <path id="Path_419" data-name="Path 419" d="M-249.458,388.379a4.915,4.915,0,0,1-1.441,3.486,4.92,4.92,0,0,1-3.493,1.448H-446.649a4.938,4.938,0,0,1-4.934-4.934,4.835,4.835,0,0,1,.489-2.132,4.721,4.721,0,0,1,.959-1.361,4.92,4.92,0,0,1,3.486-1.448h192.256a4.908,4.908,0,0,1,4.445,2.809A4.835,4.835,0,0,1-249.458,388.379Z" transform="translate(451.583 -334.926)" fill="#3683ff"/>
        <path id="Path_420" data-name="Path 420" d="M-249.707,386.247a4.708,4.708,0,0,1-.952,1.354,4.92,4.92,0,0,1-3.493,1.448H-446.408a4.924,4.924,0,0,1-4.445-2.8,4.721,4.721,0,0,1,.959-1.361,4.92,4.92,0,0,1,3.486-1.448h192.256A4.908,4.908,0,0,1-249.707,386.247Z" transform="translate(451.342 -334.926)" fill="#4e92ff"/>
        <g id="Group_1355" data-name="Group 1355" transform="translate(63.639 34.603)">
          <path id="Path_421" data-name="Path 421" d="M-352.872,388.822h0a3.786,3.786,0,0,0,3.787-3.787V366.479a3.787,3.787,0,0,0-3.787-3.787h0a3.787,3.787,0,0,0-3.787,3.787v18.557A3.787,3.787,0,0,0-352.872,388.822Z" transform="translate(356.659 -362.692)" fill="#003cb4"/>
          <path id="Path_422" data-name="Path 422" d="M-252.526,388.822h0a3.787,3.787,0,0,0,3.786-3.787V366.479a3.787,3.787,0,0,0-3.786-3.787h0a3.787,3.787,0,0,0-3.787,3.787v18.557A3.787,3.787,0,0,0-252.526,388.822Z" transform="translate(323.587 -362.692)" fill="#003cb4"/>
        </g>
      </g>
      <g id="Group_1364" data-name="Group 1364" transform="translate(-317.215 234.713)">
        <g id="Group_1357" data-name="Group 1357" transform="translate(7.627 140.229)">
          <path id="Path_423" data-name="Path 423" d="M-223.364,446.419v7.462h-16.419l7.287-5.531.087-4.472,7.542.349Z" transform="translate(239.783 -443.878)" fill="#ffad95"/>
          <path id="Path_424" data-name="Path 424" d="M-223.364,453.069v3.01h-16.419l7.287-5.531S-226.864,450.809-223.364,453.069Z" transform="translate(239.783 -446.076)" fill="#3d0019"/>
        </g>
        <g id="Group_1358" data-name="Group 1358" transform="translate(42.234 120.624)">
          <path id="Path_425" data-name="Path 425" d="M-188.163,420.691l3.087,6.793,14.947-6.793-8.923-2.02-1.929-4.035-6.722,3.438Z" transform="translate(188.163 -414.636)" fill="#ffad95"/>
          <path id="Path_426" data-name="Path 426" d="M-185.416,426.728l1.246,2.741,14.947-6.793-8.923-2.02S-183.165,423.223-185.416,426.728Z" transform="translate(187.258 -416.62)" fill="#3d0019"/>
        </g>
        <path id="Path_427" data-name="Path 427" d="M-191.308,355.281c-1.341,9.553-6.369,15.42-21.453,14.749l-8.97,40.56h-11.954s-3.882-40.56,2.655-59.165l12.631-14.246,17.706-2.011,4.867,3.151a24.738,24.738,0,0,1,3.674,7.381c.067.215.134.429.188.65A21.775,21.775,0,0,1-191.308,355.281Z" transform="translate(245.777 -267.821)" fill="#d82152"/>
        <g id="Group_1361" data-name="Group 1361" transform="translate(20.459 71.036)">
          <g id="Group_1359" data-name="Group 1359" transform="translate(0 6.704)">
            <path id="Path_428" data-name="Path 428" d="M-190.809,351.064a3,3,0,0,1-.074.335,14.321,14.321,0,0,1-6.014,9.453c-6.121,4.1-14.461,2.936-16.3,2.615l-6.778,52.232h-.67l6.825-52.668a.358.358,0,0,1,.141-.235.331.331,0,0,1,.261-.054c.094.02,9.621,1.931,16.144-2.454a13.619,13.619,0,0,0,5.732-9.024c.027-.107.047-.215.067-.322a.32.32,0,0,1,.288-.268.288.288,0,0,1,.107,0,.33.33,0,0,1,.114.04l.007.007A.332.332,0,0,1-190.809,351.064Z" transform="translate(220.643 -350.671)" fill="#ffbc40"/>
          </g>
          <g id="Group_1360" data-name="Group 1360" transform="translate(21.777)">
            <path id="Path_429" data-name="Path 429" d="M-176.584,348.164a13.968,13.968,0,0,1-1.629.1,11.308,11.308,0,0,1-1.964-.161,6.7,6.7,0,0,1-.657-.134,10.3,10.3,0,0,1-7.314-6.879.33.33,0,0,1,.235-.409.33.33,0,0,1,.409.235,9.419,9.419,0,0,0,7.026,6.463,1.281,1.281,0,0,0,.221.04l.007.007a12.293,12.293,0,0,0,3.479.087C-176.7,347.728-176.638,347.943-176.584,348.164Z" transform="translate(188.16 -340.671)" fill="#ffbc40"/>
          </g>
        </g>
        <path id="Path_430" data-name="Path 430" d="M-249.122,305.7l-1.822,2.255,1.822,11.514h3.24l6.884-9.01-.882-6.682Z" transform="translate(251.088 -257.476)" fill="#bb523d"/>
        <path id="Path_431" data-name="Path 431" d="M-183.4,296.8l2.355,1.945,2.41,8.921-3.089,1.658L-190,308.221v-10.5Z" transform="translate(231.001 -255.176)" fill="#bb523d"/>
        <path id="Path_432" data-name="Path 432" d="M-231.465,236.331a2.815,2.815,0,0,0,2.715-.346,5.882,5.882,0,0,1,3.983-1.26,5.881,5.881,0,0,1,4.818,3.29,5.4,5.4,0,0,0,1.281,2.2c1.033.78,2.487.281,3.782.267a4.854,4.854,0,0,1,3.984,2.068c.882,1.284.592,2.906.5,4.46-.093,1.608.931,1.567,1.859,2.066a5.267,5.267,0,0,1,2.446,1.914c.843,1.652-.518,3.712.054,5.475.448,1.38,1.927,2.143,2.692,3.374a4.839,4.839,0,0,1-.563,5.312,11.044,11.044,0,0,1-4.619,3.193c-8.007,3.42-17.034,3.512-25.7,2.72-2.6-.237-5.313-.594-7.442-2.1s-3.406-4.54-2.133-6.818c.681-1.219,2-2.122,2.22-3.5.383-2.413-2.842-4.369-2.3-6.752.471-2.082,3.473-2.728,4.066-4.779a6.709,6.709,0,0,0-.178-2.853,2.715,2.715,0,0,1,.713-2.646c.74-.544,1.855-.375,2.547-.979.633-.552.655-1.506.937-2.3a3.431,3.431,0,0,1,2.568-2.177A3.486,3.486,0,0,1-231.465,236.331Z" transform="translate(248.904 -234.713)" fill="#3d0019"/>
        <path id="Path_433" data-name="Path 433" d="M-196.86,317.971s-17.712,8.709-41.1,1.924l.7-13.817,1.428-28.091,11.437-4.559h2.936l14.3,2.447,9.989,40.842Z" transform="translate(246.81 -247.472)" fill="#ffbc40"/>
        <path id="Path_434" data-name="Path 434" d="M-196.86,323.488s-17.712,8.709-41.1,1.924l.7-13.817c.248-.53.5-1.059.744-1.582q2.7-5.722,5.4-11.444a20.84,20.84,0,0,1,3.761-6.047,7.052,7.052,0,0,1,6.476-2.192c2.313.59,4.069,3.278,3.131,5.471-.979,2.293-3.935,2.843-5.88,4.4-2.963,2.38-3.184,6.738-3.158,10.539a15.615,15.615,0,0,0,.449,4.364,5.243,5.243,0,0,0,2.635,3.359c1.85.858,4.076.174,6.034.744,1.6.469,2.822,1.71,4.17,2.688a14.931,14.931,0,0,0,16.331.335Z" transform="translate(246.81 -252.989)" fill="#f29b3f"/>
        <path id="Path_435" data-name="Path 435" d="M-213.343,273.411s19.032-.911,21.968,6.58,2.632,11.035,2.632,11.035l-10.934,1.114L-203.22,280.8Z" transform="translate(238.696 -247.455)" fill="#ffbc40"/>
        <path id="Path_436" data-name="Path 436" d="M-197.083,284.294l5.219,11.064-2.454.38Z" transform="translate(233.337 -251.054)" fill="#f29b3f"/>
        <path id="Path_437" data-name="Path 437" d="M-228.743,273.428s-18.628,4.657-20.855,12.047-1.418,12.479-1.418,12.479,8.909,1.693,13.06-2.153l-.3-14.983Z" transform="translate(251.159 -247.472)" fill="#ffbc40"/>
        <path id="Path_438" data-name="Path 438" d="M-240.9,303.176l3.013-14.676v14.087Z" transform="translate(247.778 -252.44)" fill="#f29b3f"/>
        <path id="Path_439" data-name="Path 439" d="M-213.6,262.128v10.211a3.336,3.336,0,0,1-3.332,3.332,3.335,3.335,0,0,1-2.36-.979,3.319,3.319,0,0,1-.979-2.353v-8.1Z" transform="translate(240.98 -243.748)" fill="#ffad95"/>
        <path id="Path_440" data-name="Path 440" d="M-213.6,262.128V266.9a7.423,7.423,0,0,1-4.961,2.668,12.008,12.008,0,0,1-1.71.134V264.24Z" transform="translate(240.98 -243.748)" fill="#bb523d"/>
        <path id="Path_441" data-name="Path 441" d="M-215.993,251.688a3.432,3.432,0,0,1-4.19-1.708,5.428,5.428,0,0,1-4.045.772,5.429,5.429,0,0,1-3.4-2.322,4.454,4.454,0,0,1-1.287,4.014,4.907,4.907,0,0,1-4.21,1.4s.834,10.1,10.326,8.708C-214.5,261.342-215.993,251.688-215.993,251.688Z" transform="translate(245.216 -239.234)" fill="#ffad95"/>
        <rect id="Rectangle_181" data-name="Rectangle 181" width="7.153" height="12.807" transform="translate(20.466 29.657)" fill="#3d0019"/>
        <path id="Path_442" data-name="Path 442" d="M-235.571,290.985s-5.973,8.5-10.034,14.629-3.633,12.705,2.947,14.021a6.62,6.62,0,0,0,7.085-3.024,10.585,10.585,0,0,0,1.72-4.535l2.639-18.315a2.321,2.321,0,0,0,2.525-2.341s1.991-1.257,1.73-1.731-2.418.782-2.418.782,1.872-1.636,1.6-2.039-2.383.853-2.383.853,2.276-1.92,1.92-2.323-2.346,1.043-2.346,1.043,2.11-2.015,1.73-2.442S-234.73,289.783-235.571,290.985Z" transform="translate(250.191 -251.463)" fill="#ffad95"/>
        <path id="Path_443" data-name="Path 443" d="M-208.665,286.616s8.909,5.35,15.105,9.3,8.475,10.139,2.993,14.012a6.621,6.621,0,0,1-7.7.111,10.579,10.579,0,0,1-3.411-3.449l-9.842-15.669a2.321,2.321,0,0,1-3.258-1.116s-2.33-.341-2.283-.88,2.527-.266,2.527-.266-2.375-.735-2.289-1.214,2.523-.186,2.523-.186-2.859-.832-2.7-1.344,2.568,0,2.568,0-2.746-.986-2.572-1.53S-209.921,285.859-208.665,286.616Z" transform="translate(239.922 -251.054)" fill="#ffad95"/>
        <g id="Group_1363" data-name="Group 1363" transform="translate(5.772 67.126)">
          <path id="Path_444" data-name="Path 444" d="M-195.958,388.525l-5.833,3.379-.59.342-3.707,2.145-27.487-35.7c-3.446.717-8.736-2.253-8.964-8.776-.013-.248-.013-.5-.007-.758a15.04,15.04,0,0,1,.342-2.816c1.931-9,13.321-12.456,21.259-11.283S-195.958,388.525-195.958,388.525Z" transform="translate(242.55 -334.838)" fill="#fa4257"/>
          <g id="Group_1362" data-name="Group 1362" transform="translate(0 9.103)">
            <path id="Path_445" data-name="Path 445" d="M-201.79,396.379l-.59.342c-5.216-6.892-20.555-27.769-30.008-47.513l-10.15,5.182c-.013-.248-.013-.5-.007-.758l10.157-5.182a.323.323,0,0,1,.261-.013.312.312,0,0,1,.194.174C-222.486,368.456-206.973,389.548-201.79,396.379Z" transform="translate(242.55 -348.416)" fill="#ffbc40"/>
          </g>
        </g>
      </g>
      <g id="Group_1369" data-name="Group 1369" transform="translate(-364.547 290.352)">
        <path id="Path_446" data-name="Path 446" d="M-257.884,455a3.664,3.664,0,0,1-3.665,3.665A3.664,3.664,0,0,1-265.212,455a3.664,3.664,0,0,1,3.664-3.664A3.664,3.664,0,0,1-257.884,455Z" transform="translate(303.123 -361.748)" fill="#3d0019"/>
        <path id="Path_447" data-name="Path 447" d="M-265.929,455a3.664,3.664,0,0,1-3.665,3.665A3.664,3.664,0,0,1-273.257,455a3.664,3.664,0,0,1,3.664-3.664A3.664,3.664,0,0,1-265.929,455Z" transform="translate(305.774 -361.748)" fill="#3d0019"/>
        <path id="Path_448" data-name="Path 448" d="M-293.149,451.078l-2.085,7.328h-2.179v-7.858Z" transform="translate(313.736 -361.487)" fill="#3d0019"/>
        <path id="Path_449" data-name="Path 449" d="M-302.933,451.078l-2.085,7.328H-307.2v-7.858Z" transform="translate(316.96 -361.487)" fill="#3d0019"/>
        <g id="Group_1367" data-name="Group 1367" transform="translate(33.803)">
          <g id="Group_1365" data-name="Group 1365" transform="translate(11.682 3.726)">
            <path id="Path_450" data-name="Path 450" d="M-253.243,368.285a.67.67,0,0,1-.67-.67V323.932a.671.671,0,0,1,.67-.67.671.671,0,0,1,.67.67v43.682A.67.67,0,0,1-253.243,368.285Z" transform="translate(253.913 -323.262)" fill="#3d0019"/>
          </g>
          <g id="Group_1366" data-name="Group 1366" transform="translate(1.412 3.726)">
            <path id="Path_451" data-name="Path 451" d="M-268.563,368.285a.67.67,0,0,1-.67-.67V323.932a.67.67,0,0,1,.67-.67.671.671,0,0,1,.67.67v43.682A.67.67,0,0,1-268.563,368.285Z" transform="translate(269.233 -323.262)" fill="#3d0019"/>
          </g>
          <path id="Path_452" data-name="Path 452" d="M-259.866,317.7h-8.378a2.841,2.841,0,0,0-3.087,3.166v5.066h4.433V321.5h5.687v4.433h4.433v-5.066A2.841,2.841,0,0,0-259.866,317.7Z" transform="translate(271.339 -317.705)" fill="#a6bf49"/>
        </g>
        <g id="Group_1368" data-name="Group 1368" transform="translate(0 33.898)">
          <path id="Path_453" data-name="Path 453" d="M-271.551,380.3s.034,31.5,0,39.025c-.013,4.525-4.177,6.094-7.482,6.624a20.975,20.975,0,0,1-4,.248h-22.958l-7.029-9.815s1.529-32.864,3.218-40.748,11.525-7.361,11.525-7.361h14.059C-270,368.274-271.551,380.3-271.551,380.3Z" transform="translate(318.88 -368.267)" fill="#7e942b"/>
          <path id="Path_454" data-name="Path 454" d="M-257.392,380.305s.034,31.5,0,39.025c-.013,4.525-4.177,6.094-7.482,6.624V381.66s.57-11.008-5.189-13.382C-255.837,368.278-257.392,380.305-257.392,380.305Z" transform="translate(304.722 -368.271)" fill="#687a24"/>
          <path id="Path_455" data-name="Path 455" d="M-293.708,381.146V426.2h-12.285l-7.029-9.815s1.529-32.864,3.218-40.748,11.525-7.361,11.525-7.361C-293.534,369.293-293.708,381.146-293.708,381.146Z" transform="translate(318.88 -368.267)" fill="#a6bf49"/>
          <path id="Path_456" data-name="Path 456" d="M-301.368,430.048a6.675,6.675,0,0,1-6.664,6.329h-4.854a9.237,9.237,0,0,1-.972-.054,8.9,8.9,0,0,1-7.884-9.426c.637-10.17,3.3-22.855,8.93-26.636a6.21,6.21,0,0,1,3.909-1.1C-300.919,399.645-300.811,419.241-301.368,430.048Z" transform="translate(321.76 -378.446)" fill="#c7e067"/>
          <path id="Path_457" data-name="Path 457" d="M-308.012,430.595a6.664,6.664,0,0,1-5.846,6.275,8.9,8.9,0,0,1-7.884-9.426c.637-10.17,3.3-22.855,8.93-26.636C-307.549,405.152-307.529,421.2-308.012,430.595Z" transform="translate(321.76 -378.992)" fill="#e0f788"/>
        </g>
      </g>
    </g>
    <g id="Group_1372" data-name="Group 1372" transform="translate(-318.046 1333.159)">
      <path id="Path_458" data-name="Path 458" d="M1407.431,520.783l-16.142,5.012-12.4-7.381a.332.332,0,0,1,.071-.6h0a10.668,10.668,0,0,1,4.647-.376Z" transform="translate(-51.524 -13.635)" fill="#bbcdf9"/>
      <path id="Path_459" data-name="Path 459" d="M1385.91,517.34l11.631,6.921,11.935-3.705-22.177-3.117A10.643,10.643,0,0,0,1385.91,517.34Z" transform="translate(-55.218 -13.64)" fill="#aec1fc"/>
      <path id="Path_460" data-name="Path 460" d="M1301.5,538.051l-.206.064a6.123,6.123,0,0,1-4.582-.385l-14.975-7.583a2.631,2.631,0,0,0-1.969-.166l-1.041.323a.35.35,0,0,0-.218.47l5.415,12.733.788,1.833,17.375-5.394Z" transform="translate(0 -20.077)" fill="#90a5fc"/>
      <path id="Path_461" data-name="Path 461" d="M1323.181,526.066l66.421-20.62a53.081,53.081,0,0,0,10.92-4.793l8.737-5.074a1.826,1.826,0,0,0,.35-.263h0a1.842,1.842,0,0,0-1.042-3.156l-9.781-1.247a13.69,13.69,0,0,0-5.791.506l-101.905,31.637a1.16,1.16,0,0,0-.587.414h0a1.164,1.164,0,0,0,.57,1.8l1.767.576A50.019,50.019,0,0,0,1323.181,526.066Z" transform="translate(-6.058 0)" fill="#738ee5"/>
      <path id="Path_462" data-name="Path 462" d="M1318.839,523.636l73.646-22.864a58.852,58.852,0,0,0,12.109-5.314l4.944-2.871a1.818,1.818,0,0,0-.969-.426l-9.781-1.247a13.69,13.69,0,0,0-5.791.506l-101.905,31.637a1.158,1.158,0,0,0-.609,1.769A55.458,55.458,0,0,0,1318.839,523.636Z" transform="translate(-6.061 0)" fill="#fff"/>
      <path id="Path_463" data-name="Path 463" d="M1506.04,494.072l7.855-2.439-4.9-.642-3.571,1.109a1.033,1.033,0,0,0-.68,1.292h0A1.033,1.033,0,0,0,1506.04,494.072Z" transform="translate(-116.276 -0.097)" fill="#aec1fc"/>
      <g id="Group_1371" data-name="Group 1371" transform="translate(1326.225 496.411)">
        <rect id="Rectangle_182" data-name="Rectangle 182" width="1.518" height="1.518" rx="0.759" transform="translate(53.583 1.45) rotate(162.75)" fill="#aec1fc"/>
        <rect id="Rectangle_183" data-name="Rectangle 183" width="1.518" height="1.518" rx="0.759" transform="matrix(-0.955, 0.296, -0.296, -0.955, 49.277, 2.787)" fill="#aec1fc"/>
        <rect id="Rectangle_184" data-name="Rectangle 184" width="1.518" height="1.518" rx="0.759" transform="translate(44.97 4.124) rotate(162.753)" fill="#aec1fc"/>
        <rect id="Rectangle_185" data-name="Rectangle 185" width="1.518" height="1.518" rx="0.759" transform="matrix(-0.955, 0.296, -0.296, -0.955, 40.663, 5.462)" fill="#aec1fc"/>
        <rect id="Rectangle_186" data-name="Rectangle 186" width="1.518" height="1.518" rx="0.759" transform="translate(36.356 6.799) rotate(162.75)" fill="#aec1fc"/>
        <rect id="Rectangle_187" data-name="Rectangle 187" width="1.518" height="1.518" rx="0.759" transform="translate(32.049 8.136) rotate(162.75)" fill="#aec1fc"/>
        <rect id="Rectangle_188" data-name="Rectangle 188" width="1.518" height="1.518" rx="0.759" transform="matrix(-0.955, 0.296, -0.296, -0.955, 27.742, 9.473)" fill="#aec1fc"/>
        <rect id="Rectangle_189" data-name="Rectangle 189" width="1.518" height="1.518" rx="0.759" transform="matrix(-0.955, 0.296, -0.296, -0.955, 23.435, 10.81)" fill="#aec1fc"/>
        <rect id="Rectangle_190" data-name="Rectangle 190" width="1.518" height="1.518" rx="0.759" transform="matrix(-0.955, 0.296, -0.296, -0.955, 19.128, 12.147)" fill="#aec1fc"/>
        <rect id="Rectangle_191" data-name="Rectangle 191" width="1.518" height="1.518" rx="0.759" transform="translate(14.821 13.484) rotate(162.75)" fill="#aec1fc"/>
        <rect id="Rectangle_192" data-name="Rectangle 192" width="1.518" height="1.518" rx="0.759" transform="translate(10.514 14.821) rotate(162.75)" fill="#aec1fc"/>
        <rect id="Rectangle_193" data-name="Rectangle 193" width="1.518" height="1.518" rx="0.759" transform="matrix(-0.955, 0.296, -0.296, -0.955, 6.207, 16.158)" fill="#aec1fc"/>
        <rect id="Rectangle_194" data-name="Rectangle 194" width="1.518" height="1.518" rx="0.759" transform="matrix(-0.955, 0.296, -0.296, -0.955, 1.9, 17.496)" fill="#aec1fc"/>
      </g>
      <path id="Path_464" data-name="Path 464" d="M1415.885,522.821l-24.857,7.717-9.133,19.814a.692.692,0,0,0,.834.951l.605-.188a11.781,11.781,0,0,0,4.467-2.566Z" transform="translate(-53.12 -16.457)" fill="#bbcdf9"/>
      <path id="Path_465" data-name="Path 465" d="M1392.456,548.9a.722.722,0,0,0-.062.344c.288-.219.569-.448.837-.693l28.084-25.729-19.651,6.1Z" transform="translate(-58.55 -16.457)" fill="#aec1fc"/>
      <path id="Path_466" data-name="Path 466" d="M1295.575,554.839l-8.749,2.716-3.444,7.471,1.623-.5Z" transform="translate(-2.518 -32.915)" fill="#90a5fc"/>
    </g>
    <g id="Group_1373" data-name="Group 1373" transform="translate(-689.825 1539.043)">
      <path id="Path_467" data-name="Path 467" d="M1608.732,337.98c1.036-1.916,3.877-3.294,7.227-3.294a11.558,11.558,0,0,1,2.644.3,5.357,5.357,0,0,1,2.919-2.856c.894-4.323,6.671-7.662,13.681-7.662,5.287,0,9.876,1.9,12.2,4.686a12.657,12.657,0,0,1,4.357-.748c4.825,0,8.736,2.5,8.736,5.581a3.593,3.593,0,0,1-.08.719c.258-.017.521-.025.786-.025,3.351,0,6.192,1.378,7.227,3.294Z" fill="#fff"/>
      <path id="Path_468" data-name="Path 468" d="M1504.7,359.275a2.3,2.3,0,0,1,2.034-.927,3.253,3.253,0,0,1,.744.086,1.509,1.509,0,0,1,.822-.8c.252-1.217,1.878-2.157,3.851-2.157a4.524,4.524,0,0,1,3.434,1.319,3.565,3.565,0,0,1,1.227-.211c1.359,0,2.459.7,2.459,1.571a1.009,1.009,0,0,1-.023.2q.109-.007.222-.007a2.3,2.3,0,0,1,2.034.927Z" transform="translate(96 -77.404)" fill="#fff"/>
      <path id="Path_470" data-name="Path 470" d="M1768.746,321.867c-1.051-1.944-3.933-3.343-7.334-3.343a11.714,11.714,0,0,0-2.682.31,5.437,5.437,0,0,0-2.963-2.9c-.907-4.387-6.769-7.775-13.883-7.775-5.365,0-10.022,1.927-12.379,4.756a12.82,12.82,0,0,0-4.421-.76c-4.9,0-8.866,2.536-8.866,5.664a3.631,3.631,0,0,0,.082.73q-.395-.025-.8-.026c-3.4,0-6.283,1.4-7.334,3.343Z" fill="#fff"/>
      <path id="Path_471" data-name="Path 471" d="M1761.544,269.36c.826-1.53,3.1-2.631,5.77-2.631a9.17,9.17,0,0,1,2.111.245,4.28,4.28,0,0,1,2.331-2.282c.714-3.451,5.327-6.118,10.924-6.118,4.222,0,7.886,1.517,9.741,3.743a10.1,10.1,0,0,1,3.479-.6c3.853,0,6.976,1.995,6.976,4.457a2.9,2.9,0,0,1-.064.574c.206-.014.416-.021.628-.021,2.675,0,4.943,1.1,5.77,2.631Z" transform="translate(9.615 -0.997)" fill="#fff"/>
      <path id="Path_472" data-name="Path 472" d="M1686.16,262.36a2.9,2.9,0,0,1,2.559-1.167,4.083,4.083,0,0,1,.936.109,1.894,1.894,0,0,1,1.033-1.012c.317-1.53,2.362-2.713,4.844-2.713a5.694,5.694,0,0,1,4.32,1.66,4.466,4.466,0,0,1,1.542-.265c1.709,0,3.094.885,3.094,1.976a1.289,1.289,0,0,1-.029.255c.092-.006.185-.01.279-.01a2.9,2.9,0,0,1,2.559,1.167Z" fill="#fff"/>
      <path id="Path_473" data-name="Path 473" d="M1852.45,359.432a3.266,3.266,0,0,0-2.885-1.315,4.615,4.615,0,0,0-1.055.122,2.141,2.141,0,0,0-1.166-1.141c-.357-1.726-2.664-3.059-5.462-3.059a6.416,6.416,0,0,0-4.87,1.871,5.047,5.047,0,0,0-1.739-.3c-1.927,0-3.488,1-3.488,2.229a1.444,1.444,0,0,0,.032.287c-.1-.007-.208-.01-.314-.01a3.265,3.265,0,0,0-2.885,1.315Z" transform="translate(-32.625 -45.88)" fill="#fff"/>
    </g>
  </g>
</svg>
