<svg id="FeaturesIcon2" xmlns="http://www.w3.org/2000/svg" width="48.192" height="59.023" viewBox="0 0 48.192 59.023">
  <path id="Path_45" data-name="Path 45" d="M47.633,11.95,24.374.13a1.205,1.205,0,0,0-1.1.006L.656,11.957a1.1,1.1,0,0,0-.6.969V28.366c.014,12.693,7.9,24.175,20.092,29.26l3.139,1.3a1.208,1.208,0,0,0,.921,0l3.537-1.457c12.42-4.975,20.5-16.568,20.5-29.416V12.925a1.1,1.1,0,0,0-.613-.975Zm-1.7,16.109c0,11.962-7.528,22.755-19.092,27.384l-.008,0-3.08,1.268L21.074,55.6C9.723,50.868,2.383,40.181,2.37,28.366V13.579L23.836,2.359,45.931,13.587Zm0,0" transform="translate(-0.055 0)" fill="#fff"/>
  <path id="Path_46" data-name="Path 46" d="M81.881,150.648a1.2,1.2,0,0,0-1.633-.123,1.069,1.069,0,0,0-.129,1.557l6.117,6.832a1.2,1.2,0,0,0,1.611.14L102.093,148a1.07,1.07,0,0,0,.167-1.554,1.2,1.2,0,0,0-1.629-.16L87.263,156.659Zm0,0" transform="translate(-66.643 -122.998)" fill="#fff"/>
</svg>
