<svg xmlns="http://www.w3.org/2000/svg" width="224" height="114.936" viewBox="0 0 224 114.936">
  <g id="Logo" transform="translate(-45.901 -286.473)">
    <path id="Path_1" data-name="Path 1" d="M358.865,384.618l-1.41,1.409-1.407-1.409Zm-1.059,11.425,1.378-4.84h1.852v-13.49l-19.152,20.993v9.252l9.562-10.485h4.428a1.824,1.824,0,0,0,1.931-1.43m-13.949-19.184h-2.823v2.818h-2.478v-2.818H335.74v-2.474h2.816v-2.815h2.478v2.815h2.823v2.474Zm6.49-10.956H332.225v31.569h8.541l19.683-21.584-10.1-9.985Zm20.068,22.59h6.559V382.03l3.461-5.354H366.546l3.869,5.354v6.463Zm6.888.855H369.46V387.48l-17.91,20.17h9.483l9.334-10.768H377.3v-1.031h.009V389.9H377.3v-.551Zm-6.881,16.068,3.275,2.55,3.278-2.55v-7.684h-6.552v7.684Z" transform="translate(-221.422 -61.425)" fill="#006b8e"/>
    <path id="Path_2" data-name="Path 2" d="M437.63,296.512l-.212-.067c-11.069-2.85-11.746-8.093-11.452-9.972a16.858,16.858,0,0,0,.107,8.923c1.327,1.325,5.737,3.265,9.995,3.689.462.059.907.149,1.35.231,11.158,2.1,12.094,11.2,8.038,15.6.439-.843,5.124-10.3-6.36-12.237-.572-.087-1.093-.188-1.58-.274-8.124-1.5-8.857-2.716-9.258-2.846-.319,1.393,1.688,8.923,9.258,9.871h.063c7.106.86,7.795,4.381,7.839,5.524l-.006.009.006-.009,0,.026.016-.037a9.029,9.029,0,0,0,3.474-6.959v-.8c-.193-4.479-3.35-9.245-11.281-10.676" transform="translate(-293.489 0)" fill="#ffbe00"/>
    <path id="Path_3" data-name="Path 3" d="M591.9,367.225l6.041,6.093,6.04,6.094-.038,8.578-.041,8.579-6.091,6.038-6.094,6.039-8.579-.038-8.579-.038-6.037-6.093-6.04-6.092.038-8.579.041-8.579,6.091-6.038,6.094-6.04,8.579.039,8.576.038Z" transform="translate(-399.482 -62.388)" fill="#b38d4f"/>
    <path id="Path_4" data-name="Path 4" d="M591.9,367.225l.057,12.324,12.024-.137-8.677,8.752,8.6,8.4-12.324.054.139,12.023-8.753-8.675-8.4,8.6-.054-12.324-12.024.139,8.677-8.755-8.6-8.4,12.321-.054-.136-12.023,8.753,8.676,8.4-8.6Z" transform="translate(-399.482 -62.388)" fill="#fff"/>
    <path id="Path_5" data-name="Path 5" d="M612.866,406.026a12.04,12.04,0,1,1-12.04,12.04,12.039,12.039,0,0,1,12.04-12.04" transform="translate(-429.137 -92.453)" fill="#b38d4f"/>
    <path id="Path_6" data-name="Path 6" d="M632.888,439.688h-.835l-.038,2.463h2.159l-1.286-2.463Zm-6.941,4.46-2.516-.053,5.848-11.293,2.639.037,5.844,11.256-8.029-.025-.032-6.345,2.067-.086-.986-2.073-.338-.021-4.5,8.6Z" transform="translate(-446.619 -113.16)" fill="#fff"/>
    <path id="Path_7" data-name="Path 7" d="M686.125,752.686V740.992h2.39v9.7h5.914v1.993Z" transform="translate(-495.101 -351.491)" fill="#006b8e"/>
    <path id="Path_8" data-name="Path 8" d="M637.612,752.344h-2.573l-1.018-2.684h-4.729l-.98,2.684h-2.526l4.577-11.793h2.526l4.722,11.793Zm-4.365-4.676-1.637-4.365-1.593,4.365Z" transform="translate(-448.44 -351.15)" fill="#006b8e"/>
    <path id="Path_9" data-name="Path 9" d="M586.484,752.348v-9.8h-3.493v-1.993h9.356v1.993H588.87v9.8Z" transform="translate(-415.345 -351.153)" fill="#006b8e"/>
    <path id="Path_10" data-name="Path 10" d="M563.176,740.556h2.39v11.792h-2.39V740.556Z" transform="translate(-400.022 -351.153)" fill="#006b8e"/>
    <path id="Path_11" data-name="Path 11" d="M512.473,752.346V740.553h3.818a13.945,13.945,0,0,1,2.829.175,3.1,3.1,0,0,1,1.7,1.156,3.67,3.67,0,0,1,.683,2.3,3.89,3.89,0,0,1-.392,1.826,3.258,3.258,0,0,1-1,1.164,3.438,3.438,0,0,1-1.233.557,13.462,13.462,0,0,1-2.466.171h-1.549v4.446Zm2.39-9.8v3.36h1.3a6.126,6.126,0,0,0,1.874-.186,1.533,1.533,0,0,0,.74-.582,1.587,1.587,0,0,0,.272-.919,1.556,1.556,0,0,0-.376-1.066,1.653,1.653,0,0,0-.958-.526,11.48,11.48,0,0,0-1.707-.08Z" transform="translate(-360.812 -351.151)" fill="#006b8e"/>
    <path id="Path_12" data-name="Path 12" d="M461.255,747.8l2.323-.231a2.83,2.83,0,0,0,.844,1.711,2.552,2.552,0,0,0,1.72.546,2.639,2.639,0,0,0,1.729-.486,1.451,1.451,0,0,0,.581-1.136l-.243-.713a1.967,1.967,0,0,0-.853-.509c-.278-.1-.91-.269-1.9-.515a6.431,6.431,0,0,1-2.677-1.172,3.118,3.118,0,0,1-.575-4.071,3.2,3.2,0,0,1,1.47-1.2,5.839,5.839,0,0,1,2.314-.412,4.9,4.9,0,0,1,3.328.983,3.48,3.48,0,0,1,1.176,2.624l-2.386.081a2.038,2.038,0,0,0-.651-1.311,2.361,2.361,0,0,0-1.5-.4,2.655,2.655,0,0,0-1.609.428.867.867,0,0,0-.376.736l.354.717a6.152,6.152,0,0,0,2.181.792,11.336,11.336,0,0,1,2.56.849,3.309,3.309,0,0,1,1.3,1.2,3.515,3.515,0,0,1,.471,1.878,3.475,3.475,0,0,1-.566,1.9,3.351,3.351,0,0,1-1.59,1.315,6.679,6.679,0,0,1-2.566.432,5.117,5.117,0,0,1-3.436-1.032,4.5,4.5,0,0,1-1.429-3" transform="translate(-321.204 -350.423)" fill="#006b8e"/>
    <path id="Path_13" data-name="Path 13" d="M405.309,745.791a7.57,7.57,0,0,1,.541-3.03,5.564,5.564,0,0,1,1.1-1.62,4.671,4.671,0,0,1,1.523-1.066,6.521,6.521,0,0,1,2.545-.466,5.548,5.548,0,0,1,4.176,1.62,7.249,7.249,0,0,1,.009,8.985,5.487,5.487,0,0,1-4.15,1.616,5.549,5.549,0,0,1-4.188-1.608,6.118,6.118,0,0,1-1.555-4.431m2.456-.079a4.439,4.439,0,0,0,.926,3.042,3.2,3.2,0,0,0,4.7.008,4.534,4.534,0,0,0,.913-3.083,4.412,4.412,0,0,0-.894-3.028,3,3,0,0,0-2.364-1,3.038,3.038,0,0,0-2.377,1.011,4.452,4.452,0,0,0-.9,3.049" transform="translate(-277.939 -350.421)" fill="#006b8e"/>
    <path id="Path_14" data-name="Path 14" d="M355.025,752.348V740.556h2.387V745.2h4.646v-4.644h2.386v11.792h-2.386v-5.155h-4.646v5.155Z" transform="translate(-239.053 -351.153)" fill="#006b8e"/>
    <path id="Path_15" data-name="Path 15" d="M455.22,631.257a9.193,9.193,0,0,0-5.389-5.485,11.669,11.669,0,0,0-4.3-.753,11.52,11.52,0,0,0-4.283.753,9.226,9.226,0,0,0-5.373,5.485,12.3,12.3,0,0,0-.737,4.381,12.1,12.1,0,0,0,.737,4.358,9.531,9.531,0,0,0,2.105,3.331,9.117,9.117,0,0,0,3.268,2.118,11.8,11.8,0,0,0,4.283.736,11.956,11.956,0,0,0,4.3-.736,9.076,9.076,0,0,0,3.284-2.118,9.487,9.487,0,0,0,2.1-3.331,12.166,12.166,0,0,0,.737-4.358,12.364,12.364,0,0,0-.737-4.381m-5.026,6.737a6.177,6.177,0,0,1-.794,2.06,4.192,4.192,0,0,1-1.52,1.458,4.645,4.645,0,0,1-2.352.545,4.572,4.572,0,0,1-2.339-.545,4.2,4.2,0,0,1-1.5-1.458,6.245,6.245,0,0,1-.8-2.06,11.893,11.893,0,0,1-.231-2.356,12.184,12.184,0,0,1,.231-2.378,6.046,6.046,0,0,1,.8-2.059,4.588,4.588,0,0,1,7.709,0,5.983,5.983,0,0,1,.794,2.059,11.969,11.969,0,0,1,.237,2.378,11.683,11.683,0,0,1-.237,2.356" transform="translate(-301.005 -261.806)" fill="#006b8e"/>
    <path id="Path_16" data-name="Path 16" d="M403.705,621.353h5.528V593.567h-5.528v27.786Z" transform="translate(-276.699 -237.483)" fill="#006b8e"/>
    <path id="Path_17" data-name="Path 17" d="M363.684,621.353h5.528V593.567h-5.528v27.786Z" transform="translate(-245.75 -237.483)" fill="#006b8e"/>
    <path id="Path_18" data-name="Path 18" d="M279.868,638a6.243,6.243,0,0,1-.8,2.06,4.186,4.186,0,0,1-1.52,1.458,4.655,4.655,0,0,1-2.352.544,4.586,4.586,0,0,1-2.342-.544,4.183,4.183,0,0,1-1.492-1.458,6.254,6.254,0,0,1-.8-2.06,11.677,11.677,0,0,1-.231-2.354,11.98,11.98,0,0,1,.231-2.38,6.048,6.048,0,0,1,.8-2.057,4.229,4.229,0,0,1,3.834-2.028,4.56,4.56,0,0,1,2.352.566,4.5,4.5,0,0,1,1.52,1.463,6.039,6.039,0,0,1,.8,2.057,11.98,11.98,0,0,1,.234,2.38,11.676,11.676,0,0,1-.234,2.354m2.918-10.082a9.4,9.4,0,0,0-3.287-2.141,11.674,11.674,0,0,0-4.3-.751,11.5,11.5,0,0,0-4.283.751,9.186,9.186,0,0,0-5.37,5.486,12.372,12.372,0,0,0-.743,4.382,12.175,12.175,0,0,0,.743,4.357,9.448,9.448,0,0,0,2.1,3.331,9.207,9.207,0,0,0,3.272,2.119,11.753,11.753,0,0,0,4.283.737,11.937,11.937,0,0,0,4.3-.737,9.051,9.051,0,0,0,3.287-2.119,9.468,9.468,0,0,0,2.1-3.331,12.233,12.233,0,0,0,.743-4.357,12.432,12.432,0,0,0-.743-4.382,9.453,9.453,0,0,0-2.1-3.345" transform="translate(-169.282 -261.809)" fill="#006b8e"/>
    <path id="Path_19" data-name="Path 19" d="M187.414,628.286a8.436,8.436,0,0,0-2.838-2.375,8.774,8.774,0,0,0-4.09-.888,7.943,7.943,0,0,0-3.426.733,6.058,6.058,0,0,0-2.567,2.374h-.079v-2.569h-5.257v33.233h5.532v-15.6h.079a6.473,6.473,0,0,0,2.589,2.237,7.814,7.814,0,0,0,3.439.759,8.373,8.373,0,0,0,3.878-.856,8.161,8.161,0,0,0,2.76-2.293,10.1,10.1,0,0,0,1.656-3.31,13.906,13.906,0,0,0,.544-3.891,15.446,15.446,0,0,0-.544-4.109,10.081,10.081,0,0,0-1.675-3.441m-3.543,9.764a5.79,5.79,0,0,1-.8,2.049,4.195,4.195,0,0,1-3.755,1.961,4.407,4.407,0,0,1-2.26-.546,4.291,4.291,0,0,1-1.5-1.415,6.2,6.2,0,0,1-.819-2.049,11.018,11.018,0,0,1-.253-2.371,12.413,12.413,0,0,1,.234-2.417,6.1,6.1,0,0,1,.8-2.058,4.554,4.554,0,0,1,1.482-1.463,4.27,4.27,0,0,1,2.279-.566,4.21,4.21,0,0,1,2.235.566,4.717,4.717,0,0,1,1.5,1.482,6.5,6.5,0,0,1,.838,2.076,11.347,11.347,0,0,1,.25,2.379,11.871,11.871,0,0,1-.234,2.371" transform="translate(-95.317 -261.809)" fill="#006b8e"/>
    <path id="Path_20" data-name="Path 20" d="M56.411,593.571,45.9,621.361h6.148l2.181-6.192H64.617l2.105,6.192h6.344l-10.393-27.79Zm-.588,17.045,3.622-10.2h.076l3.5,10.2Z" transform="translate(0 -237.487)" fill="#006b8e"/>
    <path id="Path_21" data-name="Path 21" d="M644.283,637.446l3.158,4.841c1.249,1.914,1.1,2.378-.638,2.378V645.8h7.915v-1.131c-1.274,0-1.679-.232-3.129-2.378l-4.842-7.48,5.364-6.84c1.132-1.363,1.419-1.595,2.317-1.595v-1.131h-5.595v1.131c1.682,0,1.944.493.755,2l-3.739,4.841h-.057l-2.873-4.61c-1.217-1.825-1.043-2.231.61-2.231v-1.131h-7.684v1.131c1.334,0,1.6.174,2.9,2.117l4.583,7.362-5.712,7.19c-1.072,1.363-1.479,1.624-2.377,1.624V645.8h5.769v-1.131c-1.71,0-2.029-.348-.752-1.943l3.97-5.276ZM626.9,638.693c0,1.855-.234,3.364-1.132,4.407a4.326,4.326,0,0,1-3.537,1.479,4.194,4.194,0,0,1-3.452-1.334c-.955-1.015-1.245-2.579-1.245-4.667v-9.945c0-2.087.145-2.26,2.029-2.26v-1.131h-7.624v1.131c1.944,0,2.086.232,2.086,2.26v10.119c0,2.84.493,4.725,1.973,5.942,1.274,1.074,3.161,1.508,5.623,1.508a6.909,6.909,0,0,0,5.133-1.768c1.188-1.247,1.738-2.986,1.738-5.479V628.632c0-2.028.174-2.26,1.973-2.26v-1.131h-5.6v1.131c1.8,0,2.033.2,2.033,2.26v10.06Zm-20.018,2.088h-1.479c-.784,3.363-1.1,3.624-2.785,3.624h-4.694c-.727,0-.929-.145-.929-1.3V628.691c0-2.087.146-2.319,2.292-2.319v-1.131h-8.032v1.131c2.061,0,2.292.261,2.292,2.26v13.742c0,2.059-.2,2.291-2.292,2.291V645.8h14.613l1.015-5.015ZM572.809,628c0-1.189.146-1.421.986-1.421h1.739a5.352,5.352,0,0,1,4.7,2.087c1.246,1.653,1.71,3.886,1.71,6.958,0,2.813-.521,4.957-1.653,6.465a6.031,6.031,0,0,1-5.187,2.378h-1.22c-.926,0-1.072-.232-1.072-1.682V628Zm-5.74,17.8h7.915c4.2,0,6.552-1.044,8.206-2.842,1.621-1.856,2.345-4.522,2.345-7.681,0-3.132-.812-5.771-2.608-7.627-1.682-1.709-3.885-2.405-7.276-2.405h-8.582v1.131c2.118,0,2.289.232,2.289,2.26V642.4c0,2.03-.171,2.262-2.289,2.262V645.8Zm-12.1-7.712h-6.347l2.956-9.191h.088l3.3,9.191Zm.493,1.392,1.16,3.362c.493,1.392.4,1.827-1.277,1.827V645.8h6.815v-1.131c-1.015,0-1.362-.29-1.972-1.943l-6.726-17.887h-2.029L545.312,643.1c-.433,1.3-.841,1.566-1.8,1.566V645.8h4.871v-1.131c-1.622,0-1.71-.319-1.189-2.087l.929-3.1Z" transform="translate(-384.817 -261.664)" fill="#b38d4f"/>
  </g>
</svg>
